{
	"variables": [],
	"info": {
		"name": "employee-service",
		"_postman_id": "4867a5b2-1292-053b-7ca5-c063677ccabd",
		"description": "",
		"schema": "https://schema.getpostman.com/json/collection/v2.0.0/collection.json"
	},
	"item": [
		{
			"name": "country",
			"description": "",
			"item": [
				{
					"name": "save",
					"request": {
						"url": "{{employee-service}}/country/save",
						"method": "POST",
						"header": [
							{
								"key": "Content-Type",
								"value": "application/json",
								"description": ""
							},
							{
								"key": "Authorization",
								"value": "Bearer eyJhbGciOiJIUzUxMiJ9.eyJmdWxsTmFtZSI6IkZhZGkgSGFzcm91bmkiLCJpZCI6IjYiLCJleHAiOjE1NjcwMjcxNTAsImlhdCI6MTU2NzAyNTk1MCwidXNlcm5hbWUiOiJmYWRpLmhhc3JAZ21haWwuY29tIn0.sfyx3wk0JJmQHd69D9r11BJANOAEJSXtNRfZNRrF9lMq3LN0oVowXPGqyOWoCZk1DZdgF5KvEFHgIIBmGBLyxg",
								"description": ""
							}
						],
						"body": {
							"mode": "raw",
							"raw": "{\n\t\"name\" : \"Bermuda\",\n\t\"alpha2\" : \"BM\"\n}"
						},
						"description": ""
					},
					"response": []
				},
				{
					"name": "update",
					"request": {
						"url": "{{employee-service}}/country/update",
						"method": "POST",
						"header": [
							{
								"key": "Content-Type",
								"value": "application/json",
								"description": ""
							},
							{
								"key": "Authorization",
								"value": "Bearer eyJhbGciOiJIUzUxMiJ9.eyJmdWxsTmFtZSI6IkZhZGkgSGFzcm91bmkiLCJpZCI6IjYiLCJleHAiOjE1NjcwMjcxNTAsImlhdCI6MTU2NzAyNTk1MCwidXNlcm5hbWUiOiJmYWRpLmhhc3JAZ21haWwuY29tIn0.sfyx3wk0JJmQHd69D9r11BJANOAEJSXtNRfZNRrF9lMq3LN0oVowXPGqyOWoCZk1DZdgF5KvEFHgIIBmGBLyxg",
								"description": ""
							}
						],
						"body": {
							"mode": "raw",
							"raw": "{\n\t\"id\": 32,\n\t\"name\" : \"Lebanon\",\n\t\"alpha2\" : \"LB\"\n}"
						},
						"description": ""
					},
					"response": []
				},
				{
					"name": "delete",
					"request": {
						"url": "{{employee-service}}/country/delete/31",
						"method": "DELETE",
						"header": [
							{
								"key": "Authorization",
								"value": "Bearer eyJhbGciOiJIUzUxMiJ9.eyJmdWxsTmFtZSI6IkZhZGkgSGFzcm91bmkiLCJpZCI6IjYiLCJleHAiOjE1NjcwMjcxNTAsImlhdCI6MTU2NzAyNTk1MCwidXNlcm5hbWUiOiJmYWRpLmhhc3JAZ21haWwuY29tIn0.sfyx3wk0JJmQHd69D9r11BJANOAEJSXtNRfZNRrF9lMq3LN0oVowXPGqyOWoCZk1DZdgF5KvEFHgIIBmGBLyxg",
								"description": ""
							}
						],
						"body": {},
						"description": ""
					},
					"response": []
				},
				{
					"name": "get",
					"request": {
						"url": "{{employee-service}}/country/32",
						"method": "GET",
						"header": [
							{
								"key": "Authorization",
								"value": "Bearer eyJhbGciOiJIUzUxMiJ9.eyJmdWxsTmFtZSI6IkZhZGkgSGFzcm91bmkiLCJpZCI6IjMiLCJleHAiOjE1NjcwMjU4NjksImlhdCI6MTU2NzAyNDY2OSwidXNlcm5hbWUiOiJmYWRpLmhhcnNyb3VudGlAZ21haWwuY29tIn0.IB3FIC-GSC6XejDaBj20FOE0U5nHGywkK48QRkfMwiZHQNlTLyYBcroW8zJXwrF5Uv5taBGeJSy5lyUXGLgFEQ",
								"description": ""
							}
						],
						"body": {},
						"description": ""
					},
					"response": []
				},
				{
					"name": "list",
					"request": {
						"url": "{{employee-service}}/country/list",
						"method": "GET",
						"header": [
							{
								"key": "Authorization",
								"value": "Bearer eyJhbGciOiJIUzUxMiJ9.eyJmdWxsTmFtZSI6IkZhZGkgSGFzcm91bmkiLCJpZCI6IjMiLCJleHAiOjE1NjcwMjU4NjksImlhdCI6MTU2NzAyNDY2OSwidXNlcm5hbWUiOiJmYWRpLmhhcnNyb3VudGlAZ21haWwuY29tIn0.IB3FIC-GSC6XejDaBj20FOE0U5nHGywkK48QRkfMwiZHQNlTLyYBcroW8zJXwrF5Uv5taBGeJSy5lyUXGLgFEQ",
								"description": ""
							}
						],
						"body": {},
						"description": ""
					},
					"response": []
				}
			]
		},
		{
			"name": "employee",
			"description": "",
			"item": [
				{
					"name": "save",
					"request": {
						"url": "{{employee-service}}/employee/save",
						"method": "POST",
						"header": [
							{
								"key": "Content-Type",
								"value": "application/json",
								"description": ""
							},
							{
								"key": "Authorization",
								"value": "Bearer eyJhbGciOiJIUzUxMiJ9.eyJmdWxsTmFtZSI6IkZhZGkgSGFzcm91bmkiLCJpZCI6IjYiLCJleHAiOjE1NjcwMjcxNTAsImlhdCI6MTU2NzAyNTk1MCwidXNlcm5hbWUiOiJmYWRpLmhhc3JAZ21haWwuY29tIn0.sfyx3wk0JJmQHd69D9r11BJANOAEJSXtNRfZNRrF9lMq3LN0oVowXPGqyOWoCZk1DZdgF5KvEFHgIIBmGBLyxg",
								"description": ""
							}
						],
						"body": {
							"mode": "raw",
							"raw": "{\n\t\"name\" : \"Fadi\",\n\t\"familyName\" : \"Hasrouni\",\n\t\"email\" : \"fadi.hasrouni@gmail.com\",\n\t\"phoneNumber\" : 71786702,\n\t\"picture\" : \"www.google.com/this/pic\",\n\t\"jobTitle\" : \"software engineer\",\n\t\"birthDate\" : \"1992-02-29\",\n\t\"gender\" : \"male\",\n\t\"hireDate\" : \"2015-07-25\",\n\t\"salary\" : 3200,\n\t\"department\" : 100, \n\t\"country\" : 32\n}"
						},
						"description": ""
					},
					"response": []
				},
				{
					"name": "list",
					"request": {
						"url": "{{employee-service}}/employee/list",
						"method": "GET",
						"header": [
							{
								"key": "Authorization",
								"value": "Bearer eyJhbGciOiJIUzUxMiJ9.eyJmdWxsTmFtZSI6IkZhZGkgSGFzcm91bmkiLCJpZCI6IjYiLCJleHAiOjE1NjcwMjcxNTAsImlhdCI6MTU2NzAyNTk1MCwidXNlcm5hbWUiOiJmYWRpLmhhc3JAZ21haWwuY29tIn0.sfyx3wk0JJmQHd69D9r11BJANOAEJSXtNRfZNRrF9lMq3LN0oVowXPGqyOWoCZk1DZdgF5KvEFHgIIBmGBLyxg",
								"description": ""
							}
						],
						"body": {},
						"description": ""
					},
					"response": []
				},
				{
					"name": "update",
					"request": {
						"url": "{{employee-service}}/employee/update",
						"method": "POST",
						"header": [
							{
								"key": "Content-Type",
								"value": "application/json",
								"description": ""
							},
							{
								"key": "Authorization",
								"value": "Bearer eyJhbGciOiJIUzUxMiJ9.eyJmdWxsTmFtZSI6IkZhZGkgSGFzcm91bmkiLCJpZCI6IjYiLCJleHAiOjE1NjcwMjcxNTAsImlhdCI6MTU2NzAyNTk1MCwidXNlcm5hbWUiOiJmYWRpLmhhc3JAZ21haWwuY29tIn0.sfyx3wk0JJmQHd69D9r11BJANOAEJSXtNRfZNRrF9lMq3LN0oVowXPGqyOWoCZk1DZdgF5KvEFHgIIBmGBLyxg",
								"description": ""
							}
						],
						"body": {
							"mode": "raw",
							"raw": "{\n        \"id\": 58,\n        \"name\": \"Maroun\",\n        \"familyName\": \"Haddad\",\n        \"email\": \"Maroun.Haddad@gmail.com\",\n        \"phoneNumber\": 71786702,\n        \"picture\": \"www.google.com/this/pic\",\n        \"jobTitle\": \"software engineer\",\n        \"birthDate\": \"0034-06-15T00:02:00.000+0000\",\n        \"gender\": \"male\",\n        \"hireDate\": \"0030-07-08T00:07:00.000+0000\",\n        \"salary\": 3200,\n        \"department\": 100,\n        \"country\":33\n    }"
						},
						"description": ""
					},
					"response": []
				},
				{
					"name": "delete",
					"request": {
						"url": "{{employee-service}}/employee/delete/59",
						"method": "DELETE",
						"header": [
							{
								"key": "Authorization",
								"value": "Bearer eyJhbGciOiJIUzUxMiJ9.eyJmdWxsTmFtZSI6IkZhZGkgSGFzcm91bmkiLCJpZCI6IjYiLCJleHAiOjE1NjcwMjcxNTAsImlhdCI6MTU2NzAyNTk1MCwidXNlcm5hbWUiOiJmYWRpLmhhc3JAZ21haWwuY29tIn0.sfyx3wk0JJmQHd69D9r11BJANOAEJSXtNRfZNRrF9lMq3LN0oVowXPGqyOWoCZk1DZdgF5KvEFHgIIBmGBLyxg",
								"description": ""
							}
						],
						"body": {},
						"description": ""
					},
					"response": []
				},
				{
					"name": "get",
					"request": {
						"url": "{{employee-service}}/employee/58",
						"method": "GET",
						"header": [
							{
								"key": "Authorization",
								"value": "Bearer eyJhbGciOiJIUzUxMiJ9.eyJmdWxsTmFtZSI6IkZhZGkgSGFzcm91bmkiLCJpZCI6IjYiLCJleHAiOjE1NjcwMjcxNTAsImlhdCI6MTU2NzAyNTk1MCwidXNlcm5hbWUiOiJmYWRpLmhhc3JAZ21haWwuY29tIn0.sfyx3wk0JJmQHd69D9r11BJANOAEJSXtNRfZNRrF9lMq3LN0oVowXPGqyOWoCZk1DZdgF5KvEFHgIIBmGBLyxg",
								"description": ""
							}
						],
						"body": {},
						"description": ""
					},
					"response": []
				}
			]
		},
		{
			"name": "department",
			"description": "",
			"item": [
				{
					"name": "get",
					"request": {
						"url": "{{employee-service}}/department/100",
						"method": "GET",
						"header": [
							{
								"key": "Authorization",
								"value": "Bearer eyJhbGciOiJIUzUxMiJ9.eyJmdWxsTmFtZSI6IkZhZGkgSGFzcm91bmkiLCJpZCI6IjMiLCJleHAiOjE1NjcwMjU4NjksImlhdCI6MTU2NzAyNDY2OSwidXNlcm5hbWUiOiJmYWRpLmhhcnNyb3VudGlAZ21haWwuY29tIn0.IB3FIC-GSC6XejDaBj20FOE0U5nHGywkK48QRkfMwiZHQNlTLyYBcroW8zJXwrF5Uv5taBGeJSy5lyUXGLgFEQ",
								"description": ""
							}
						],
						"body": {},
						"description": ""
					},
					"response": []
				},
				{
					"name": "list",
					"request": {
						"url": "{{employee-service}}/department/list",
						"method": "GET",
						"header": [
							{
								"key": "Authorization",
								"value": "Bearer eyJhbGciOiJIUzUxMiJ9.eyJmdWxsTmFtZSI6IkZhZGkgSGFzcm91bmkiLCJpZCI6IjMiLCJleHAiOjE1NjcwMjU4NjksImlhdCI6MTU2NzAyNDY2OSwidXNlcm5hbWUiOiJmYWRpLmhhcnNyb3VudGlAZ21haWwuY29tIn0.IB3FIC-GSC6XejDaBj20FOE0U5nHGywkK48QRkfMwiZHQNlTLyYBcroW8zJXwrF5Uv5taBGeJSy5lyUXGLgFEQ",
								"description": ""
							}
						],
						"body": {},
						"description": ""
					},
					"response": []
				},
				{
					"name": "save",
					"request": {
						"url": "{{employee-service}}/department/save",
						"method": "POST",
						"header": [
							{
								"key": "Content-Type",
								"value": "application/json",
								"description": ""
							},
							{
								"key": "Authorization",
								"value": "Bearer eyJhbGciOiJIUzUxMiJ9.eyJmdWxsTmFtZSI6IkZhZGkgSGFzcm91bmkiLCJpZCI6IjMiLCJleHAiOjE1NjcwMjU4NjksImlhdCI6MTU2NzAyNDY2OSwidXNlcm5hbWUiOiJmYWRpLmhhcnNyb3VudGlAZ21haWwuY29tIn0.IB3FIC-GSC6XejDaBj20FOE0U5nHGywkK48QRkfMwiZHQNlTLyYBcroW8zJXwrF5Uv5taBGeJSy5lyUXGLgFEQ",
								"description": ""
							}
						],
						"body": {
							"mode": "raw",
							"raw": "{\n    \"name\": \"Finance Department\"\n}"
						},
						"description": ""
					},
					"response": []
				},
				{
					"name": "update",
					"request": {
						"url": "{{employee-service}}/department/update",
						"method": "POST",
						"header": [
							{
								"key": "Content-Type",
								"value": "application/json",
								"description": ""
							},
							{
								"key": "Authorization",
								"value": "Bearer eyJhbGciOiJIUzUxMiJ9.eyJmdWxsTmFtZSI6IkZhZGkgSGFzcm91bmkiLCJpZCI6IjMiLCJleHAiOjE1NjcwMjU4NjksImlhdCI6MTU2NzAyNDY2OSwidXNlcm5hbWUiOiJmYWRpLmhhcnNyb3VudGlAZ21haWwuY29tIn0.IB3FIC-GSC6XejDaBj20FOE0U5nHGywkK48QRkfMwiZHQNlTLyYBcroW8zJXwrF5Uv5taBGeJSy5lyUXGLgFEQ",
								"description": ""
							}
						],
						"body": {
							"mode": "raw",
							"raw": "{\n    \"id\": 65,\n    \"name\": \"Financial Department\"\n}"
						},
						"description": ""
					},
					"response": []
				},
				{
					"name": "delete",
					"request": {
						"url": "{{employee-service}}/department/delete/65",
						"method": "DELETE",
						"header": [
							{
								"key": "Authorization",
								"value": "Bearer eyJhbGciOiJIUzUxMiJ9.eyJmdWxsTmFtZSI6IkZhZGkgSGFzcm91bmkiLCJpZCI6IjYiLCJleHAiOjE1NjcwMjcxNTAsImlhdCI6MTU2NzAyNTk1MCwidXNlcm5hbWUiOiJmYWRpLmhhc3JAZ21haWwuY29tIn0.sfyx3wk0JJmQHd69D9r11BJANOAEJSXtNRfZNRrF9lMq3LN0oVowXPGqyOWoCZk1DZdgF5KvEFHgIIBmGBLyxg",
								"description": ""
							}
						],
						"body": {},
						"description": ""
					},
					"response": []
				}
			]
		},
		{
			"name": "user",
			"description": "",
			"item": [
				{
					"name": "register",
					"request": {
						"url": "{{employee-service}}/user/register",
						"method": "POST",
						"header": [
							{
								"key": "Content-Type",
								"value": "application/json",
								"description": ""
							}
						],
						"body": {
							"mode": "raw",
							"raw": "{\n    \"username\" :\"fadi.hasr@gmail.com\",\n     \"fullName\" :\"Fadi Hasrouni\",\n     \"password\" :\"testPass\",\n     \"confirmPassword\" :\"testPass\"\n}"
						},
						"description": ""
					},
					"response": []
				},
				{
					"name": "login",
					"request": {
						"url": "{{employee-service}}/user/login",
						"method": "POST",
						"header": [
							{
								"key": "Content-Type",
								"value": "application/json",
								"description": ""
							}
						],
						"body": {
							"mode": "raw",
							"raw": "{\n     \"username\" :\"fadi.hasr@gmail.com\",\n     \"password\" :\"testPass\"\n}"
						},
						"description": ""
					},
					"response": []
				}
			]
		}
	]
}